General exploration • deeptools
…
percentage participation (part)

part <- mission2 %>% 
  count(username) %>% 
  mutate(perc = n * 100 / sum(n)) %>% 
  rlang::set_names(c("UserID", "nb_annotations", "percentage")) %>% 
  arrange(desc(nb_annotations)) %>% 
  mutate(sumcum = cumsum(percentage))

# 463 participants
part

## # A tibble: 463 x 4
##    UserID        nb_annotations percentage sumcum
##    <chr>                  <int>      <dbl>  <dbl>
##  1 chipiok                81521      51.4    51.4
##  2 grillus33              10952       6.90   58.3
##  3 Pierre                  5250       3.31   61.6
##  4 classe                  3769       2.38   64.0
##  5 fetescience             3334       2.10   66.1
##  6 tiffk67                 3231       2.04   68.1
##  7 Audrette                2484       1.57   69.7
##  8 Kazu                    2211       1.39   71.1
##  9 macrobrachium           2098       1.32   72.4
## 10 Steatoda                1699       1.07   73.4
## # … with 453 more rows

Number of participants per number of image annotated

nb_annot_part <- part %>% 
  group_by(nb_annotations) %>% 
  summarize(Nb_participants = n()) %>% 
  arrange(desc(nb_annotations)) %>% 
  mutate(sumcum = cumsum(Nb_participants))

nb_annot_part

## # A tibble: 170 x 3
##    nb_annotations Nb_participants sumcum
##             <int>           <int>  <int>
##  1          81521               1      1
##  2          10952               1      2
##  3           5250               1      3
##  4           3769               1      4
##  5           3334               1      5
##  6           3231               1      6
##  7           2484               1      7
##  8           2211               1      8
##  9           2098               1      9
## 10           1699               1     10
## # … with 160 more rows
…
Number of images annotated by participant

## Number of images annotated by participant##
nb_image_part <- mission2 %>%
  dplyr::select(image_id, username) %>%
  distinct() %>%
  count(username) %>%
  arrange(desc(n))

nb_image_part

## # A tibble: 463 x 2
##    username        n
##    <chr>       <int>
##  1 chipiok      2338
##  2 grillus33    1019
##  3 Audrette      570
##  4 classe        499
##  5 tiffk67       496
##  6 fetescience   409
##  7 Kazu          343
##  8 Steatoda      335
##  9 Pierre        306
## 10 Azaldar       273
## # … with 453 more rows
…
# Top user
mission2_ONC %>% 
  group_by(username) %>% 
  summarise(n_images = length(unique(image_id))) %>% 
  arrange(desc(n_images))

## # A tibble: 458 x 2
##    username    n_images
##    <chr>          <int>
##  1 chipiok         2106
##  2 grillus33        844
##  3 Audrette         516
##  4 classe           467
##  5 tiffk67          429
##  6 fetescience      370
##  7 Kazu             303
##  8 Steatoda         303
##  9 Pierre           259
## 10 Azaldar          238
## # … with 448 more rows

# Top image
mission2_ONC %>% 
  group_by(image_id) %>% 
  summarise(n_users = length(unique(username))) %>% 
  arrange(desc(n_users))

## # A tibble: 3,392 x 2
##    image_id n_users
##       <int>   <int>
##  1    12755       6
##  2    10700       5
##  3    10705       5
##  4    10707       5
##  5    10758       5
##  6    10759       5
##  7    10829       5
##  8    10843       5
##  9    10883       5
## 10    10911       5
## # … with 3,382 more rows
…
