Buccinides • deeptools
…
# Filter and transform as spatial data
ONC2_bucc_carto <- mission2_ONC %>%
  to_carto(name_fr_clean, "escargot_buccinide")

Exploration of annotations

Users

ONC2_bucc %>% 
  count(username) %>% 
  arrange(desc(n))

#> # A tibble: 453 x 2
#>    username        n
#>    <chr>       <int>
#>  1 chipiok     14183
#>  2 grillus33    5230
#>  3 tiffk67      2534
#>  4 classe       2057
#>  5 Audrette     1917
#>  6 Kazu         1819
#>  7 fetescience  1731
#>  8 Steatoda     1516
#>  9 Pierre       1367
#> 10 Azaldar      1231
#> # … with 443 more rows

Images

ONC2_bucc %>% 
  count(image_id) %>% 
  arrange(desc(n))

#> # A tibble: 3,251 x 2
#>    image_id     n
#>       <int> <int>
#>  1    11873   101
#>  2    11201    88
#>  3    10747    86
#>  4    11383    86
#>  5    12794    85
#>  6    12783    83
#>  7    12200    82
#>  8    11830    80
#>  9    11379    79
#> 10    11947    78
#> # … with 3,241 more rows

Example: filter_col = username, filter_val = "Lawzama", image_id == "10681"

#> # A tibble: 115 x 2
#>    image_id     n
#>       <int> <int>
#>  1    12860    12
#>  2    10957    10
#>  3    12568    10
#>  4    10853     9
#>  5    11704     8
#>  6    12350     8
#>  7    10821     7
#>  8    11383     7
#>  9    11517     7
#> 10    11705     7
#> # … with 105 more rows
…
For each pixel of the stack, we can define a group of polygons with the same size as the number of user_id. Indeed, an important part of pixels are not covered by polygons and will be identified as NA-...-NA-...-NA. Once removed those pixels, we can find the most represented groups of polygons.

# Combine layers and find groups of polygons
bucc_groups_count <- group_pixels_count(bucc_voronoi_stack)
bucc_groups_count

#> # A tibble: 86 x 2
#>    grouped_ids n_pixels
#>    <chr>          <int>
#>  1 13-20-22-39     7614
#>  2 6-NA-NA-NA      7388
#>  3 NA-NA-NA-34     7172
#>  4 10-NA-26-33     6765
#>  5 1-21-29-30      6583
#>  6 NA-NA-27-NA     6459
#>  7 5-NA-NA-NA      6326
#>  8 3-NA-NA-NA      5492
#>  9 12-NA-24-37     5464
#> 10 16-NA-NA-NA     5201
#> # … with 76 more rows
…
Choose group with highest surface in common

With these two rules, some chosen groups may include polygons associated to other groups.

#' Find in which groups are each polygons
all_image_pol_ids <- pull(bucc_image, image_pol_id) %>% unique()

bucc_groups_top <- find_top_groups(bucc_groups_count,
                                   all_image_pol_ids)
test_ids_in_group <- test_groups_kept(bucc_groups_top)

# Show in how many groups are individuals (Should be only one)
test_ids_in_group$ids_in_groups_count

#> # A tibble: 39 x 2
#>    list_ids     n
#>       <dbl> <int>
#>  1       32     2
#>  2        1     1
#>  3        2     1
#>  4        3     1
#>  5        4     1
#>  6        5     1
#>  7        6     1
#>  8        7     1
#>  9        8     1
#> 10        9     1
#> # … with 29 more rows
…
    test_ids_in_group2 <- test_groups_kept(bucc_groups_top2)
    
  }
  # Retrieve success grouping
  bucc_groups_top <- bucc_groups_top2
  # Last verification
  test_ids_in_group <- test_groups_kept(bucc_groups_top)
}

# Show in how many groups are individuals (Should be only one)
test_ids_in_group$ids_in_groups_count

#> # A tibble: 39 x 2
#>    list_ids     n
#>       <dbl> <int>
#>  1        1     1
#>  2        2     1
#>  3        3     1
#>  4        4     1
#>  5        5     1
#>  6        6     1
#>  7        7     1
#>  8        8     1
#>  9        9     1
#> 10       10     1
#> # … with 29 more rows
…
# ONC2_bucc_carto_groups 

# Number of objects per image (already known before)
bucc_nobjects <- ONC2_bucc_carto_groups %>% 
  count(image_id) %>% 
  rename(n_objects = n) %>% 
  count(n_objects) %>% 
  arrange(desc(n)) %>% 
  rename(n_images = n)

# Number of marked objects by images
bucc_nobjects

#> # A tibble: 86 x 2
#>    n_objects n_images
#>        <int>    <int>
#>  1         4      228
#>  2         6      187
#>  3         8      185
#>  4         5      175
#>  5         7      162
#>  6         9      161
#>  7        12      149
#>  8        10      142
#>  9         3      139
#> 10        11      102
#> # … with 76 more rows
…
# Stats on groups
bucc_groups <- ONC2_bucc_carto_groups %>% 
  group_by(image_id, group_kept) %>% 
  summarise(
    n_users = n(),
    n_user_id = mean(n_user_id),
    proportion = n()/mean(n_user_id)
  ) %>% 
  ungroup()

# Number of individuals ~ proportion
bucc_groups

#> # A tibble: 24,272 x 5
#>    image_id group_kept  n_users n_user_id proportion
#>       <int> <chr>         <int>     <dbl>      <dbl>
#>  1    10680 1-19-NA-44        3         4       0.75
#>  2    10680 10-NA-NA-NA       1         4       0.25
#>  3    10680 11-NA-NA-NA       1         4       0.25
#>  4    10680 12-NA-NA-NA       1         4       0.25
#>  5    10680 13-26-NA-NA       2         4       0.5 
#>  6    10680 14-NA-NA-NA       1         4       0.25
#>  7    10680 2-18-36-43        4         4       1   
#>  8    10680 3-23-34-40        4         4       1   
#>  9    10680 4-22-33-42        4         4       1   
#> 10    10680 5-21-32-39        4         4       1   
#> # … with 24,262 more rows
…
Statistics on number of groups by image

Calculate the number of groups in all images.

## Stats on nb groups by image
bucc_ngroups_count <- bucc_groups %>% 
  group_by(image_id) %>% 
  summarise(n_groups = n()) 

# Number of images
bucc_ngroups_count %>% count(n_groups)

#> # A tibble: 36 x 2
#>    n_groups     n
#>       <int> <int>
#>  1        1   327
#>  2        2   467
#>  3        3   441
#>  4        4   381
#>  5        5   265
#>  6        6   198
#>  7        7   120
#>  8        8    77
#>  9        9    60
#> 10       10    58
#> # … with 26 more rows
…
If we only keep groups identified by at least half of the users, we can recalculate the number of groups by image.

## Stats on nb groups by image
bucc_ngroups_count_thd <- bucc_groups %>% 
  filter(proportion >= 0.5) %>% 
  group_by(image_id) %>% 
  summarise(n_groups = n()) 

# Number of images
bucc_ngroups_count_thd %>% count(n_groups)

#> # A tibble: 27 x 2
#>    n_groups     n
#>       <int> <int>
#>  1        1   655
#>  2        2   680
#>  3        3   513
#>  4        4   327
#>  5        5   145
#>  6        6    71
#>  7        7    50
#>  8        8    71
#>  9        9    92
#> 10       10    92
#> # … with 17 more rows
…
