Chapter 4 Exploration of “Pycnogonide” data | Report on image analysis
…
4.6.2 Images

Number of annotations by image

ONC2_pyc %>% 
  count(image_id) %>% 
  arrange(desc(n))

#> # A tibble: 2,028 x 2
#>    image_id     n
#>       <int> <int>
#>  1    13855   180
#>  2    11725   167
#>  3    13059   165
#>  4    13373   163
#>  5    12571   158
#>  6    13510   150
#>  7    12933   146
#>  8    13578   145
#>  9    12266   135
#> 10    13405   130
#> # … with 2,018 more rows

Number of users by image

ONC2_pyc %>% 
  group_by(image_id) %>% 
  summarize(n_users = length(unique(user_id))) %>% 
  arrange(desc(n_users))

#> # A tibble: 2,028 x 2
#>    image_id n_users
#>       <int>   <int>
#>  1    11425       4
#>  2    12838       4
#>  3    13988       4
#>  4    10725       3
#>  5    10784       3
#>  6    10785       3
#>  7    10874       3
#>  8    11062       3
#>  9    11083       3
#> 10    11095       3
#> # … with 2,018 more rows

4.6.3 Example: filter_col = username, filter_val = "grillus33", image_id == "10681"

#> # A tibble: 268 x 2
#>    image_id     n
#>       <int> <int>
#>  1    12738    46
#>  2    13749    46
#>  3    13059    45
#>  4    12686    42
#>  5    13836    40
#>  6    14075    40
#>  7    12954    39
#>  8    11962    38
#>  9    12024    36
#> 10    13807    34
#> # … with 258 more rows
…
4.8.1 Number of objects per image (already known before)

# Number of objects per image (already known before)
pyc_nobjects <- ONC2_pyc_carto_groups %>% 
  count(image_id) %>% 
  rename(n_objects = n) %>% 
  count(n_objects) %>% 
  arrange(desc(n)) %>% 
  rename(n_images = n)

# Number of marked objects by images
pyc_nobjects

#> # A tibble: 115 x 2
#>    n_objects n_images
#>        <int>    <int>
#>  1        13      105
#>  2        12       82
#>  3        17       82
#>  4        19       81
#>  5        14       80
#>  6        16       72
#>  7        15       70
#>  8        11       68
#>  9        18       67
#> 10        20       61
#> # … with 105 more rows
…
# Stats on groups
pyc_groups <- ONC2_pyc_carto_groups %>% 
  group_by(image_id, group_kept) %>% 
  summarise(
    n_users = n(),
    n_user_id = mean(n_user_id),
    proportion = n()/mean(n_user_id)
  ) %>% 
  ungroup()

# Number of individuals ~ proportion
pyc_groups

#> # A tibble: 44,300 x 5
#>    image_id group_kept n_users n_user_id proportion
#>       <int> <chr>        <int>     <dbl>      <dbl>
#>  1    10680 1                1         1          1
#>  2    10680 10               1         1          1
#>  3    10680 11               1         1          1
#>  4    10680 12               1         1          1
#>  5    10680 13               1         1          1
#>  6    10680 14               1         1          1
#>  7    10680 15               1         1          1
#>  8    10680 16               1         1          1
#>  9    10680 17               1         1          1
#> 10    10680 18               1         1          1
#> # … with 44,290 more rows
…
4.8.3 Statistics on number of groups by image

Calculate the number of groups in all images.

## Stats on nb groups by image
pyc_ngroups_count <- pyc_groups %>% 
  group_by(image_id) %>% 
  summarise(n_groups = n()) 

# Number of images
pyc_ngroups_count %>% count(n_groups)

#> # A tibble: 100 x 2
#>    n_groups     n
#>       <int> <int>
#>  1        1    32
#>  2        2    40
#>  3        3    28
#>  4        4    37
#>  5        5    35
#>  6        6    46
#>  7        7    45
#>  8        8    48
#>  9        9    60
#> 10       10    54
#> # … with 90 more rows
…
If we only keep groups identified by at least half of the users, we can recalculate the number of groups by image.

## Stats on nb groups by image
pyc_ngroups_count_thd <- pyc_groups %>% 
  filter(proportion >= 0.5) %>% 
  group_by(image_id) %>% 
  summarise(n_groups = n()) 

# Number of images
pyc_ngroups_count_thd %>% count(n_groups)

#> # A tibble: 98 x 2
#>    n_groups     n
#>       <int> <int>
#>  1        1    33
#>  2        2    41
#>  3        3    29
#>  4        4    41
#>  5        5    37
#>  6        6    49
#>  7        7    48
#>  8        8    53
#>  9        9    64
#> 10       10    58
#> # … with 88 more rows
…
