Couverture de moules
…
#> # A tibble: 2 x 2
#>   username      n
#>   <chr>     <int>
#> 1 chipiok    1527
#> 2 grillus33    71

1.6.2 Images

Number of annotations by image

MAR_mussel %>% 
  count(image_id) %>% 
  arrange(desc(n))

#> # A tibble: 133 x 2
#>    image_id     n
#>       <int> <int>
#>  1    14411    32
#>  2    14589    28
#>  3    14186    27
#>  4    14307    25
#>  5    14281    23
#>  6    14326    23
#>  7    14396    21
#>  8    14552    21
#>  9    14352    20
#> 10    14147    19
#> # … with 123 more rows

Number of users by image

MAR_mussel %>% 
  group_by(image_id) %>% 
  summarize(n_users = length(unique(user_id))) %>% 
  arrange(desc(n_users))

#> # A tibble: 133 x 2
#>    image_id n_users
#>       <int>   <int>
#>  1    14186       2
#>  2    14190       2
#>  3    14281       2
#>  4    14307       2
#>  5    14326       2
#>  6    14329       2
#>  7    14352       2
#>  8    14387       2
#>  9    14396       2
#> 10    14411       2
#> # … with 123 more rows
…
1.8.1 Number of objects per image (already known before)

# Number of objects per image (already known before)
mussel_nobjects <- MAR_mussel_carto_groups %>% 
  count(image_id) %>% 
  rename(n_objects = n) %>% 
  count(n_objects) %>% 
  arrange(desc(n)) %>% 
  rename(n_images = n)

# Number of marked objects by images
mussel_nobjects

#> # A tibble: 24 x 2
#>    n_objects n_images
#>        <int>    <int>
#>  1        11       19
#>  2        10       14
#>  3        12       14
#>  4        13       12
#>  5        14        8
#>  6        15        7
#>  7         4        6
#>  8         8        6
#>  9         9        6
#> 10         5        5
#> # … with 14 more rows
…
MAR_mussel_carto_groups_area <- MAR_mussel_carto_groups %>% 
  mutate(area = MAR_mussel_carto_groups %>% 
           st_sf() %>% st_area()) %>% 
  group_by(image_id, group_kept) %>% 
  summarise(nb_polygons_in_group = n(),
            area_mean = mean(area),
            area_sd = sd(area),
            area_sd = if_else(is.na(area_sd), 0, area_sd),
            area_cv = area_sd / area_mean) %>% 
  arrange(desc(nb_polygons_in_group))

MAR_mussel_carto_groups_area

#> # A tibble: 1,508 x 6
#> # Groups:   image_id [133]
#>    image_id group_kept nb_polygons_in_group area_mean  area_sd area_cv
#>       <int> <chr>                     <int>     <dbl>    <dbl>   <dbl>
#>  1    14186 1-16                          2     1656.   211.    0.127 
#>  2    14186 11-20                         2   176066. 41803.    0.237 
#>  3    14186 12-22                         2    31141.  4061.    0.130 
#>  4    14186 13-23                         2     5800.  4407.    0.760 
#>  5    14186 2-17                          2      285.   159.    0.557 
#>  6    14186 3-15                          2     2379.    89.4   0.0376
#>  7    14186 4-18                          2     1452    135.    0.0930
#>  8    14186 5-26                          2      823.     9.55  0.0116
#>  9    14186 6-27                          2      608.   319.    0.525 
#> 10    14186 7-14                          2     8050    142.    0.0177
#> # … with 1,498 more rows
…
